{
    "page": 1,
    "per_page": 10,
    "photos": [
        {
            "id": 3794753,
            "width": 5760,
            "height": 3840,
            "url": "https://www.pexels.com/photo/national-colorful-flag-of-ethiopia-under-cloudy-sky-3794753/",
            "photographer": "Kelly",
            "photographer_url": "https://www.pexels.com/@kelly-1179532",
            "photographer_id": 1179532,
            "avg_color": "#B9CBC7",
            "src": {
                "original": "https://images.pexels.com/photos/3794753/pexels-photo-3794753.jpeg",
                "large2x": "https://images.pexels.com/photos/3794753/pexels-photo-3794753.jpeg?auto=compress&cs=tinysrgb&dpr=2&h=650&w=940",
                "large": "https://images.pexels.com/photos/3794753/pexels-photo-3794753.jpeg?auto=compress&cs=tinysrgb&h=650&w=940",
                "medium": "https://images.pexels.com/photos/3794753/pexels-photo-3794753.jpeg?auto=compress&cs=tinysrgb&h=350",
                "small": "https://images.pexels.com/photos/3794753/pexels-photo-3794753.jpeg?auto=compress&cs=tinysrgb&h=130",
                "portrait": "https://images.pexels.com/photos/3794753/pexels-photo-3794753.jpeg?auto=compress&cs=tinysrgb&fit=crop&h=1200&w=800",
                "landscape": "https://images.pexels.com/photos/3794753/pexels-photo-3794753.jpeg?auto=compress&cs=tinysrgb&fit=crop&h=627&w=1200",
                "tiny": "https://images.pexels.com/photos/3794753/pexels-photo-3794753.jpeg?auto=compress&cs=tinysrgb&dpr=1&fit=crop&h=200&w=280"
            },
            "liked": false,
            "alt": "National colorful flag of Ethiopia under cloudy sky"
        },
        {
            "id": 2919737,
            "width": 5760,
            "height": 3840,
            "url": "https://www.pexels.com/photo/photo-of-toddler-2919737/",
            "photographer": "Gift Habeshaw",
            "photographer_url": "https://www.pexels.com/@lovetosmile",
            "photographer_id": 1506630,
            "avg_color": "#281E1B",
            "src": {
                "original": "https://images.pexels.com/photos/2919737/pexels-photo-2919737.jpeg",
                "large2x": "https://images.pexels.com/photos/2919737/pexels-photo-2919737.jpeg?auto=compress&cs=tinysrgb&dpr=2&h=650&w=940",
                "large": "https://images.pexels.com/photos/2919737/pexels-photo-2919737.jpeg?auto=compress&cs=tinysrgb&h=650&w=940",
                "medium": "https://images.pexels.com/photos/2919737/pexels-photo-2919737.jpeg?auto=compress&cs=tinysrgb&h=350",
                "small": "https://images.pexels.com/photos/2919737/pexels-photo-2919737.jpeg?auto=compress&cs=tinysrgb&h=130",
                "portrait": "https://images.pexels.com/photos/2919737/pexels-photo-2919737.jpeg?auto=compress&cs=tinysrgb&fit=crop&h=1200&w=800",
                "landscape": "https://images.pexels.com/photos/2919737/pexels-photo-2919737.jpeg?auto=compress&cs=tinysrgb&fit=crop&h=627&w=1200",
                "tiny": "https://images.pexels.com/photos/2919737/pexels-photo-2919737.jpeg?auto=compress&cs=tinysrgb&dpr=1&fit=crop&h=200&w=280"
            },
            "liked": false,
            "alt": "Photo Of Toddler "
        },
        {
            "id": 7461979,
            "width": 2677,
            "height": 4000,
            "url": "https://www.pexels.com/photo/volcanic-area-in-danakil-depression-ethiopia-7461979/",
            "photographer": "Atypeek Dgn",
            "photographer_url": "https://www.pexels.com/@atypeek",
            "photographer_id": 3805268,
            "avg_color": "#BC8037",
            "src": {
                "original": "https://images.pexels.com/photos/7461979/pexels-photo-7461979.jpeg",
                "large2x": "https://images.pexels.com/photos/7461979/pexels-photo-7461979.jpeg?auto=compress&cs=tinysrgb&dpr=2&h=650&w=940",
                "large": "https://images.pexels.com/photos/7461979/pexels-photo-7461979.jpeg?auto=compress&cs=tinysrgb&h=650&w=940",
                "medium": "https://images.pexels.com/photos/7461979/pexels-photo-7461979.jpeg?auto=compress&cs=tinysrgb&h=350",
                "small": "https://images.pexels.com/photos/7461979/pexels-photo-7461979.jpeg?auto=compress&cs=tinysrgb&h=130",
                "portrait": "https://images.pexels.com/photos/7461979/pexels-photo-7461979.jpeg?auto=compress&cs=tinysrgb&fit=crop&h=1200&w=800",
                "landscape": "https://images.pexels.com/photos/7461979/pexels-photo-7461979.jpeg?auto=compress&cs=tinysrgb&fit=crop&h=627&w=1200",
                "tiny": "https://images.pexels.com/photos/7461979/pexels-photo-7461979.jpeg?auto=compress&cs=tinysrgb&dpr=1&fit=crop&h=200&w=280"
            },
            "liked": false,
            "alt": "Volcanic Area in Danakil Depression, Ethiopia"
        },
        {
            "id": 15809167,
            "width": 6720,
            "height": 4480,
            "url": "https://www.pexels.com/photo/handsome-man-posing-by-orange-wall-15809167/",
            "photographer": "Gift Habeshaw",
            "photographer_url": "https://www.pexels.com/@lovetosmile",
            "photographer_id": 1506630,
            "avg_color": "#D28770",
            "src": {
                "original": "https://images.pexels.com/photos/15809167/pexels-photo-15809167.jpeg",
                "large2x": "https://images.pexels.com/photos/15809167/pexels-photo-15809167.jpeg?auto=compress&cs=tinysrgb&dpr=2&h=650&w=940",
                "large": "https://images.pexels.com/photos/15809167/pexels-photo-15809167.jpeg?auto=compress&cs=tinysrgb&h=650&w=940",
                "medium": "https://images.pexels.com/photos/15809167/pexels-photo-15809167.jpeg?auto=compress&cs=tinysrgb&h=350",
                "small": "https://images.pexels.com/photos/15809167/pexels-photo-15809167.jpeg?auto=compress&cs=tinysrgb&h=130",
                "portrait": "https://images.pexels.com/photos/15809167/pexels-photo-15809167.jpeg?auto=compress&cs=tinysrgb&fit=crop&h=1200&w=800",
                "landscape": "https://images.pexels.com/photos/15809167/pexels-photo-15809167.jpeg?auto=compress&cs=tinysrgb&fit=crop&h=627&w=1200",
                "tiny": "https://images.pexels.com/photos/15809167/pexels-photo-15809167.jpeg?auto=compress&cs=tinysrgb&dpr=1&fit=crop&h=200&w=280"
            },
            "liked": false,
            "alt": "Handsome Man Posing by Orange Wall"
        },
        {
            "id": 15784927,
            "width": 3456,
            "height": 4546,
            "url": "https://www.pexels.com/photo/elegant-elderly-man-in-red-jacket-15784927/",
            "photographer": "Abiy  Fikru",
            "photographer_url": "https://www.pexels.com/@abiy-fikru-176179",
            "photographer_id": 176179,
            "avg_color": "#B38875",
            "src": {
                "original": "https://images.pexels.com/photos/15784927/pexels-photo-15784927.jpeg",
                "large2x": "https://images.pexels.com/photos/15784927/pexels-photo-15784927.jpeg?auto=compress&cs=tinysrgb&dpr=2&h=650&w=940",
                "large": "https://images.pexels.com/photos/15784927/pexels-photo-15784927.jpeg?auto=compress&cs=tinysrgb&h=650&w=940",
                "medium": "https://images.pexels.com/photos/15784927/pexels-photo-15784927.jpeg?auto=compress&cs=tinysrgb&h=350",
                "small": "https://images.pexels.com/photos/15784927/pexels-photo-15784927.jpeg?auto=compress&cs=tinysrgb&h=130",
                "portrait": "https://images.pexels.com/photos/15784927/pexels-photo-15784927.jpeg?auto=compress&cs=tinysrgb&fit=crop&h=1200&w=800",
                "landscape": "https://images.pexels.com/photos/15784927/pexels-photo-15784927.jpeg?auto=compress&cs=tinysrgb&fit=crop&h=627&w=1200",
                "tiny": "https://images.pexels.com/photos/15784927/pexels-photo-15784927.jpeg?auto=compress&cs=tinysrgb&dpr=1&fit=crop&h=200&w=280"
            },
            "liked": false,
            "alt": "Elegant Elderly Man in Red Jacket"
        },
        {
            "id": 6742986,
            "width": 2521,
            "height": 1681,
            "url": "https://www.pexels.com/photo/people-walking-in-front-of-brown-concrete-building-6742986/",
            "photographer": "Lan Yao",
            "photographer_url": "https://www.pexels.com/@lan-yao-324969",
            "photographer_id": 324969,
            "avg_color": "#77898F",
            "src": {
                "original": "https://images.pexels.com/photos/6742986/pexels-photo-6742986.jpeg",
                "large2x": "https://images.pexels.com/photos/6742986/pexels-photo-6742986.jpeg?auto=compress&cs=tinysrgb&dpr=2&h=650&w=940",
                "large": "https://images.pexels.com/photos/6742986/pexels-photo-6742986.jpeg?auto=compress&cs=tinysrgb&h=650&w=940",
                "medium": "https://images.pexels.com/photos/6742986/pexels-photo-6742986.jpeg?auto=compress&cs=tinysrgb&h=350",
                "small": "https://images.pexels.com/photos/6742986/pexels-photo-6742986.jpeg?auto=compress&cs=tinysrgb&h=130",
                "portrait": "https://images.pexels.com/photos/6742986/pexels-photo-6742986.jpeg?auto=compress&cs=tinysrgb&fit=crop&h=1200&w=800",
                "landscape": "https://images.pexels.com/photos/6742986/pexels-photo-6742986.jpeg?auto=compress&cs=tinysrgb&fit=crop&h=627&w=1200",
                "tiny": "https://images.pexels.com/photos/6742986/pexels-photo-6742986.jpeg?auto=compress&cs=tinysrgb&dpr=1&fit=crop&h=200&w=280"
            },
            "liked": false,
            "alt": "People Walking in Front of Brown Concrete Building"
        },
        {
            "id": 17853346,
            "width": 6720,
            "height": 4480,
            "url": "https://www.pexels.com/photo/fasil-ghebbi-castle-in-ethiopia-17853346/",
            "photographer": "Abenezer Muluken",
            "photographer_url": "https://www.pexels.com/@abenezer-muluken-425993865",
            "photographer_id": 425993865,
            "avg_color": "#76715E",
            "src": {
                "original": "https://images.pexels.com/photos/17853346/pexels-photo-17853346.jpeg",
                "large2x": "https://images.pexels.com/photos/17853346/pexels-photo-17853346.jpeg?auto=compress&cs=tinysrgb&dpr=2&h=650&w=940",
                "large": "https://images.pexels.com/photos/17853346/pexels-photo-17853346.jpeg?auto=compress&cs=tinysrgb&h=650&w=940",
                "medium": "https://images.pexels.com/photos/17853346/pexels-photo-17853346.jpeg?auto=compress&cs=tinysrgb&h=350",
                "small": "https://images.pexels.com/photos/17853346/pexels-photo-17853346.jpeg?auto=compress&cs=tinysrgb&h=130",
                "portrait": "https://images.pexels.com/photos/17853346/pexels-photo-17853346.jpeg?auto=compress&cs=tinysrgb&fit=crop&h=1200&w=800",
                "landscape": "https://images.pexels.com/photos/17853346/pexels-photo-17853346.jpeg?auto=compress&cs=tinysrgb&fit=crop&h=627&w=1200",
                "tiny": "https://images.pexels.com/photos/17853346/pexels-photo-17853346.jpeg?auto=compress&cs=tinysrgb&dpr=1&fit=crop&h=200&w=280"
            },
            "liked": false,
            "alt": "Fasil Ghebbi Castle in Ethiopia"
        },
        {
            "id": 7438161,
            "width": 3984,
            "height": 2656,
            "url": "https://www.pexels.com/photo/backview-of-people-sitting-on-pews-7438161/",
            "photographer": "Estella",
            "photographer_url": "https://www.pexels.com/@estella-44057930",
            "photographer_id": 44057930,
            "avg_color": "#494548",
            "src": {
                "original": "https://images.pexels.com/photos/7438161/pexels-photo-7438161.jpeg",
                "large2x": "https://images.pexels.com/photos/7438161/pexels-photo-7438161.jpeg?auto=compress&cs=tinysrgb&dpr=2&h=650&w=940",
                "large": "https://images.pexels.com/photos/7438161/pexels-photo-7438161.jpeg?auto=compress&cs=tinysrgb&h=650&w=940",
                "medium": "https://images.pexels.com/photos/7438161/pexels-photo-7438161.jpeg?auto=compress&cs=tinysrgb&h=350",
                "small": "https://images.pexels.com/photos/7438161/pexels-photo-7438161.jpeg?auto=compress&cs=tinysrgb&h=130",
                "portrait": "https://images.pexels.com/photos/7438161/pexels-photo-7438161.jpeg?auto=compress&cs=tinysrgb&fit=crop&h=1200&w=800",
                "landscape": "https://images.pexels.com/photos/7438161/pexels-photo-7438161.jpeg?auto=compress&cs=tinysrgb&fit=crop&h=627&w=1200",
                "tiny": "https://images.pexels.com/photos/7438161/pexels-photo-7438161.jpeg?auto=compress&cs=tinysrgb&dpr=1&fit=crop&h=200&w=280"
            },
            "liked": false,
            "alt": "Backview of People Sitting on Pews"
        },
        {
            "id": 5096897,
            "width": 3840,
            "height": 5760,
            "url": "https://www.pexels.com/photo/a-man-riding-his-skateboard-with-a-flag-tied-around-his-body-5096897/",
            "photographer": "Nemuel Sereti",
            "photographer_url": "https://www.pexels.com/@nemuel",
            "photographer_id": 930713,
            "avg_color": "#C1BAB9",
            "src": {
                "original": "https://images.pexels.com/photos/5096897/pexels-photo-5096897.jpeg",
                "large2x": "https://images.pexels.com/photos/5096897/pexels-photo-5096897.jpeg?auto=compress&cs=tinysrgb&dpr=2&h=650&w=940",
                "large": "https://images.pexels.com/photos/5096897/pexels-photo-5096897.jpeg?auto=compress&cs=tinysrgb&h=650&w=940",
                "medium": "https://images.pexels.com/photos/5096897/pexels-photo-5096897.jpeg?auto=compress&cs=tinysrgb&h=350",
                "small": "https://images.pexels.com/photos/5096897/pexels-photo-5096897.jpeg?auto=compress&cs=tinysrgb&h=130",
                "portrait": "https://images.pexels.com/photos/5096897/pexels-photo-5096897.jpeg?auto=compress&cs=tinysrgb&fit=crop&h=1200&w=800",
                "landscape": "https://images.pexels.com/photos/5096897/pexels-photo-5096897.jpeg?auto=compress&cs=tinysrgb&fit=crop&h=627&w=1200",
                "tiny": "https://images.pexels.com/photos/5096897/pexels-photo-5096897.jpeg?auto=compress&cs=tinysrgb&dpr=1&fit=crop&h=200&w=280"
            },
            "liked": false,
            "alt": "A Man Riding His Skateboard with a Flag Tied Around His Body"
        },
        {
            "id": 5096907,
            "width": 3840,
            "height": 5760,
            "url": "https://www.pexels.com/photo/a-person-walking-while-holding-an-umbrella-5096907/",
            "photographer": "Nemuel Sereti",
            "photographer_url": "https://www.pexels.com/@nemuel",
            "photographer_id": 930713,
            "avg_color": "#656251",
            "src": {
                "original": "https://images.pexels.com/photos/5096907/pexels-photo-5096907.jpeg",
                "large2x": "https://images.pexels.com/photos/5096907/pexels-photo-5096907.jpeg?auto=compress&cs=tinysrgb&dpr=2&h=650&w=940",
                "large": "https://images.pexels.com/photos/5096907/pexels-photo-5096907.jpeg?auto=compress&cs=tinysrgb&h=650&w=940",
                "medium": "https://images.pexels.com/photos/5096907/pexels-photo-5096907.jpeg?auto=compress&cs=tinysrgb&h=350",
                "small": "https://images.pexels.com/photos/5096907/pexels-photo-5096907.jpeg?auto=compress&cs=tinysrgb&h=130",
                "portrait": "https://images.pexels.com/photos/5096907/pexels-photo-5096907.jpeg?auto=compress&cs=tinysrgb&fit=crop&h=1200&w=800",
                "landscape": "https://images.pexels.com/photos/5096907/pexels-photo-5096907.jpeg?auto=compress&cs=tinysrgb&fit=crop&h=627&w=1200",
                "tiny": "https://images.pexels.com/photos/5096907/pexels-photo-5096907.jpeg?auto=compress&cs=tinysrgb&dpr=1&fit=crop&h=200&w=280"
            },
            "liked": false,
            "alt": "A Person Walking while Holding an Umbrella"
        }
    ],
    "total_results": 75,
    "next_page": "https://api.pexels.com/v1/search/?api_key=&page=2&per_page=10&query=Ethiopia"
}